{
	"data":{
		"sections": [
			{
				"title":"Top Queries",
				"id":"topQueries",
				"allTopic":{
					"href":"#helpTopics",
					"title":"Help Topics"
				},
				"excludeInMobileNav":true,
				"displayOrder":0,
				"questions":[
					{
						"question":"Why is Myntra shutting down its website?",
						"answer":[
							"Myntra has made this move with an eye towards the future, where mobiles will outgrow desktops both in terms of computing power and penetration. Myntra believes that switching to a mobile platform gives you the freedom to shop anytime, anywhere. It fits in perfectly with Myntra’s aim to create customer delight, as mobiles allow us to create a personalized experience to cater to your unique look good needs."
						]
					},
					{
						"question":"Why is Myntra also shutting down its m-site?",
						"answer":[
							"Myntra shall provide a better shopping experience on the Mobile App than it could through any mobile browser. Myntra Mobile App allows Myntra to give you a high quality personalized experience across all supported platforms."
						]
					},
					{
						"question":"How can I track/cancel/return/exchange my order on the website as I do not have the app?",
						"answer":[
							"**To Track Your Order**: You can look for the order ID (please check the order confirmation email in your registered email address or check the order confirmation SMS) on [www.myntra.com](http://www.myntra.com) under “My Orders” in the “My Myntra” section. This page also has a courier tracking number that can be used to track the status of the order at our courier partner's website. It may take up to 24 hours for the order status to be updated on our courier partner's website. \nYou can also track your order through SMS by sending a text message Myntra <Order ID> to 9227507512. REFER TO DETAILED ORDER POLICY.",
							"**To Return/Exchange Your Order**: You can look for the order ID (please check the order confirmation email in your registered email address or check the order confirmation SMS) under “My Orders” –> in the “My Myntra” section and click on “Return” or “Exchange” against the order, respectively. REFER TO DETAILED RETURN/EXCHANGE POLICY.",
							"**To Cancel Your Order**: You can look for the order ID (please check the order confirmation email in your registered email address or check the order confirmation SMS) under “My Orders” in the “My Myntra” section and click on “Cancel” against that order. In any case, you can call us +91-80-43541999 or email us at support@myntra.com and our customer care executives will help with your cancellation request. \n**Please note**: In case the order is already shipped, please refuse delivery and we’ll immediately refund if it is an online order. REFER TO DETAILED CANCELLATION POLICY."
						]
					},
					{
						"question":"How can I withdraw money from my cashback account?",
						"answer":[
							"Cashback will be credited to the payment source – debit/credit card from which the payment was made for pre-paid orders or via NEFT in case of COD orders. For cashback accrued from COD orders, please write an email to support@myntra.com from your registered email address along with your bank account details (Name of the bank, bank account number, bank customer name, IFSC code, account type - savings or current) and we will transfer your cashback to your bank account."
						]
					},
					{
						"question":"I don’t have access to my registered email address. How can I withdraw money from my cashback account?",
						"answer":[
							"Please call us at +91-80-43541999 and our customer care executives will help you. We will call back on your registered phone number with us to authenticate your identity before transferring your cashback to your bank account. REFER TO DETAILED COUPON AND CASHBACK POLICY."
						]
					},
					{
						"question":"I was given a coupon when you cancelled my last order. How can I use it?",
						"answer":[
							"To use your coupon, you will have to continue shopping with us on the app. In case, you don’t have access to the App currently, don’t worry, your coupons are safe with us. Whenever you download the app in future, you will be able to use the coupon (unless it has expired). REFER TO DETAILED COUPON AND CASHBACK POLICY."
						]
					},
					{
						"question":"I have accumulated Myntra Points in my account. How can I redeem them?",
						"answer":[
							"To redeem Myntra Points, you will have to continue shopping with us on the App. In case, you don’t have access to the App, don’t worry, your Myntra Points are safe with us, whenever you download the App in future. REFER TO DETAILED COUPON AND CASHBACK POLICY."
						]
					}
				]
			},
			{
				"title":"Order Tracking, Shipping and Delivery",
				"id":"shipping",
				"displayOrder":1,
				"mymyntraLinks": {
					"title":"You can track your orders in MyMyntra",
					"links":[
						{
							"href":"/my/orders",
							"text":"Track orders"
						}
					]
				},
				"questions":[
					{
						"question":"What is Myntra's Shipping Policy?",
						"answer":[
							"We strive to deliver products purchased from Myntra in excellent condition and in the fastest time possible. If this is your first order with Myntra, shipping will be completely FREE. Also, for all the subsequent purchases of Rs. 999* or more, we will deliver the order to your doorstep free of cost. A shipping charge of Rs. 149 will be applicable to all orders under Rs. 999.",
							"+ If the order is cancelled, lost or un-delivered to your preferred location, we will refund the complete order amount including any shipping charges. \n+ If you return an order delivered to you, original shipping charges will not be refunded. However if you self-ship your returns, you will be reimbursed based on Myntra's Returns Policy.",
							"*Order value is calculated after applying discounts/Vat or any other applicable charges."
						]
					},
					{
						"question":"How do I check the status of my order on Myntra Mobile App?",
						"answer":[
							"You can use the order ID (please check the order confirmation email in your registered email address or check the order confirmation SMS) on Myntra Mobile App’s tab “My Order” to track your order (accessed using Manage Orders link). You can also track your order through SMS by sending a text message Myntra <Order ID> to 9227507512."
						]
					},
					{
						"question":"How do I check the status of my order on Myntra Website?",
						"answer":[
							"You can look for the order ID (please check the order confirmation email in your registered email address or check the order confirmation SMS) on [www.myntra.com](http://www.myntra.com) under “My Orders” in the “My Myntra” section. This page also has a courier tracking number that can be used to track the status of the order at our courier partner's website. It may take up to 24 hours for the order status to be updated on our courier partner's website. \nYou can also track your order through SMS by sending a text message Myntra <Order ID> to 9227507512."
						]
					},
					{
						"question":"How can I check if Myntra delivers to my PIN Code?",
						"answer":[
							"You can find out if Myntra delivers to your PIN Code using the courier serviceability tool located below the “Buy Now” button on the product page. Please enter your PIN code into the tool to get the information relating to serviceability in your area, standard delivery time and if Cash on Delivery is available for the order selected. \nThe PIN codes serviced by us are frequently updated, so if we do not deliver to your PIN code today, please come back and check to see if this has changed."
						]
					},
					{
						"question":"How are orders placed on Myntra delivered to me?",
						"answer":[
							"All orders placed on Myntra are dispatched through our own courier service - Myntra Logistics, or through other courier partners such as Blue Dart or any other courier partner of Myntra."
						]
					},
					{
						"question":"Does Myntra deliver products outside India?",
						"answer":[
							"No. At this point, Myntra delivers products only within India."
						]
					},
					{
						"question":"How can I get my order delivered faster?",
						"answer":[
							"We offer two faster delivery options to ensure guaranteed and faster delivery of your order: Same Day Delivery and Next Day Delivery \nIf you place an order by choosing the Same Day Delivery option before 11 AM then we guarantee the delivery of your order by end of same day. However, the same shall not be applicable in event of any government holidays and/or any event not in control of Myntra. If you place an order by choosing the Next Day Delivery option before 7 PM then we guarantee the delivery of your order by end of next day excluding any government holidays and/or any event not in control of Myntra. \nThese services are offered for selected cities and items. If the Same Day Delivery and the Next Day Delivery options are available for your order, you will see these option displayed when you select the delivery address for your order.",
							"#### Available Shipping Options",
							"+ **Same Day Delivery**:-\n  + Order placed before 11 AM today will be delivered by end of same day including Sundays, however, excluding any government holidays and/or any event not in control of Myntra. \n  + Availability: Available for orders above Rs. 999 in Bangalore, Delhi, Faridabad, Ghaziabad, Greater Noida, Gurgaon and Noida. \n  + Charges: Rs.199 \n+ **Next Day Delivery**:-\n  + Order placed before 7 PM today will be delivered by end of next day including Sundays, however, excluding any government holidays and/or any event not in control of Myntra. \n  + Availability: Available for orders above Rs. 999 in Ahmedabad, Bangalore, Chennai, Delhi, Faridabad, Ghaziabad, Greater Noida, Gurgaon, Hyderabad, Mumbai, Noida and Pune. \n  + Charges: Rs. 149 \n+ **Standard Delivery**:- \n  + Delivery typically in 2 to 7 days. Please check the product details page for pin code-specific times. \n  + Availability: All serviceable locations. \n  + Charges: FREE for orders above Rs. 999. Rs. 149 per order below Rs. 999",
							"In case due to any circumstances we fail to deliver the SDD or NDD order on time, we will refund the SDD/NDD charges."
						]
					}
				]
			},
			{
				"title":"Cancellations and Modifications",
				"id":"cancel",
				"displayOrder":3,
				"mymyntraLinks": {
					"title":"You can cancel your orders in MyMyntra",
					"links":[
						{
							"href":"/my/orders",
							"text":"Cancel item"
						}
					]
				},
				"questions":[
					{
						"question":"What is Myntra's Cancellation Policy?",
						"answer":[
							"You can cancel an order until it has been processed in our warehouse by going to the 'My Order’ section of the website. This includes items purchased on sale. Any amount you paid will be credited back into your Myntra account in the form of Cashback."
						]
					},
					{
						"question":"Can I modify the shipping address of my order after it has been placed?",
						"answer":[
							"Yes. You can modify the shipping address of your order before we have processed (packed) it, by contacting our customer support team at +91-80-43541999."
						]
					},
					{
						"question":"How do I cancel my Order on Myntra Mobile App?",
						"answer":[
							"You can use the order ID (please check the order confirmation email in your registered email address or check the order confirmation SMS) on Myntra Mobile App to cancel your order in a tab named “My Orders”."
						]
					},
					{
						"question":"How do I cancel my Order on Myntra website?",
						"answer":[
							"You can look for the order ID (please check the order confirmation email in your registered email address or check the order confirmation SMS) on [www.myntra.com](http://www.myntra.com) under “My Orders” in the “My Myntra” section and click on “Cancel” against that order. \n**Please note**: In case the order is already shipped, please refuse delivery and we’ll immediately refund if it is an online order."
						]
					},
					{
						"question":"I just cancelled my order. When will I receive my refund?",
						"answer":[
							"If you have selected Cash on Delivery, there is no amount to refund because you haven't paid for your order. For payments made using a Credit Card, Debit Card, or Net Banking, you will receive a refund in your Myntra Cashback account immediately after your order has been cancelled. Any coupons used are also reinstated to your account. \nIf you have made your payment using a Credit Card, Debit Card, or net banking and would like a refund to your bank account, please get in touch with our customer support team."
						]
					}
				]
			},
			{
				"title":"Returns",
				"id":"returns",
				"displayOrder":2,
				"mymyntraLinks": {
					"title":"You can return/exchange your orders in MyMyntra",
					"links":[
						{
							"href":"/my/orders",
							"text":"Exchange item"
						},
						{
							"href":"/my/orders",
							"text":"Return item"
						}
					]
				},
				"questions": [
					{
						"question":"What is Myntra's Return and Exchange Policy?",
						"link":"return-exchange-policy",
						"answer":[
							"Myntra's Return and Exchange Policy offers you the option to return or exchange items purchased on Myntra within 30 days of receipt. In case of returns, we will credit the amount you paid for the products as cashback into your Myntra cashback account. If you choose to exchange the item for reason of mismatch of size or receipt of a defective item, you will be provided with a replacement of the item, free of cost. \nHowever an exchange is subject to availability of the item in our stock.",
							"The following EXCEPTIONS and RULES apply to this Policy: ",
							"+ Certain innerwear, cosmetics, socks, deodorants, perfumes, fashion accessories, hair accessories **cannot be exchanged or returned**. The list of such items includes: \n  + Briefs, Shape wear bottoms or any lingerie set that includes a brief \n  + Anklets, Bangles, Earrings, Bracelets, Brooches, Earrings, Pendants, Necklaces and Rings \n  + Mittens, Socks and Wrist-Bands \n  + Due to their intimate nature, we handle returns and exchanges for innerwear, sleepwear and lingerie items differently: \n    + Only self-ship return allowed for such items, the pickup facility will not be available \n    + These items cannot be exchanged \n+ All items to be returned or exchanged must be unused and in their original condition with all original tags and packaging intact (for e.g. shoes must be packed in the original shoe box as well and returned), and should not be broken or tampered with. \n+ Only size exchanges are allowed. Items can be exchanged for a similar size or a different size. Exchanges are allowed only if your address is serviceable for an Exchange by our logistics team. \n+ In case you had purchased an item which has a free gift/offer associated with it and you wish to return the item, maximum of Refunds/Free item MRP will be debited until the satisfactory receipt of all free gift(s)/offer item(s) that are shipped along with it. \n+ If you choose to self-ship your returns, kindly pack the items securely to prevent any loss or damage during transit. For all self-shipped returns, we recommend you use a reliable courier service. \n+ Once your return is received by us, you will be reimbursed Rs 100/- towards shipping costs per order/parcel, if self-shipped. This is subject to your return having met the requirements of this Policy."
						]
					},
					{
						"question":"What is Myntra's 30 day return and exchange policy? How does it work?",
						"link":"30-day-return-exchange-policy",
						"answer":[
							"Myntra's 30 day returns and exchange policy gives you an option to return or exchange items purchased on Myntra for any reason within 30 days of receipt of the item. We only ask that you don't use the product and preserve its original condition, tags, and packaging. You are welcome to try on a product but please take adequate measure to preserve its condition. \nThere are two ways to return the product to us. In most locations we offer a free pick up service for your return. You will see a pickup option when you submit a return request. If we don't offer a pick up at your location, or if you prefer, you can ship an item back to us. In such cases, we will credit your cashback account with Rs.100 to cover your cost of shipping the product back to us.",
							"Once we pick up or receive your return, we will do a quality check of the product at our end and if the product passes our quality check we will credit the amount you paid for the products as cashback into your Myntra account. If you wish to receive a refund instead, please send an email with the following details from your registered email address to payment@myntra. If the picked up product does not pass the quality check we shall return it back to you.",
							"+ Bank Name\n+ Account Holder Name\n+ Bank Account Number\n+ IFSC Code\n+ Account type – Savings or Current",
							"You can exchange an item purchased from Myntra for a new size or the original size for no extra charge. However all exchanges are subject to stock availability and subject to your address being serviceable for an exchange. If you choose to exchange an item, our delivery representative will deliver the new item to you and simultaneously pick up the original item from you. Please note that we are only able to offer size exchanges. If you wish to exchange your item for an alternative product, we suggest that you return it to obtain a cash-back refund and purchase the new item separately."
						]
					},
					{
						"question":"How do I return a product through Myntra Mobile App?",
						"link":"return-product-through-mobil-app",
						"answer":[
							"You can use the order ID (please check the order confirmation email in your registered email address or check the order confirmation SMS) on Myntra Mobile App’s tab “My Orders” to return/exchange your order."
						]
					},
					{
						"question":"How do I return the order on Myntra Website?",
						"link":"return-order-on-website",
						"answer":[
							"You can use the order ID (please check the order confirmation email in your registered email address or check the order confirmation SMS) on www.myntra.com under “My Orders” –> in the “My Myntra” section and click on “Return” or “Exchange” against the order, to return/exchange your order"
						]
					},
					{
						"question":"To return a product to Myntra, please follow these steps:",
						"link":"to-return-a-product",
						"answer":[
							"You can return almost all products purchased from Myntra within 30 days of receiving the product.",
							"+ Create a Returns Request by going to “My Orders” section of Myntra mobile app. Follow the screens that come up after clicking on 'Return’ button. Please make a note of the Return ID that we generate at the end of the process.\n+ Please write the following information on a sheet of paper and place this sheet along with the item into the package: \n  + Order No \n  + Return Id\n+ Keep the item ready for pick up or ship it to us: You can choose to schedule a pick-up of your order or self-ship your return to us. We offer pick-ups of your return in select locations - this option will be available to you when you submit your return online.",
							"**Pick-up**: If you choose to schedule a pick-up, please place the product in a packet but do not seal it. Please include the product along with the tags and the packaging material that it came and the aforementioned sheet of paper in the package. Leave the packet ready and open to expedite the return pickup. Our staff will initially examine the product at the time of pickup and a further quality check of the product will be conducted at our Distribution Center. Once your product has been approved by our quality staff we will credit your account with cashback.",
							"**Self-ship**: If you choose to self-ship, please pack the product in its original package along with the accompanying tags and the aforementioned sheet of paper. Kindly address the package to the address of the delivery center closest to you. We have listed out the addresses of the delivery centers in another section on this page.",
							"We will send you a confirmation email as we receive the shipment at our warehouse. At any time, you can track the status of your return request by going to the “My Order” section."
						]
					},
					{
						"question":"How do I place an exchange request on Myntra?",
						"link":"place-an-exchange-request",
						"answer":[
							"If you would like to exchange some products purchased from Myntra, please follow these steps:",
							"+ Create an exchange request online. You can exchange any product purchased from Myntra within 30 days of delivery by going to the “My Order” section. Please select the item you wish to exchange. If your address is serviceable for exchange you will be able to proceed and generate an exchange id. Please note down your exchange id for future reference\n+ Write the following information of the original product that you are exchanging, on a sheet of paper:\n  + Original Order Id \n  + Exchange Order Id\n+ Place the product in a packet but do not seal it. Please include the product along with the tags and the packaging material that it came with and the aforementioned sheet of paper in the packet.\n+ Hand over the original product to our delivery staff and receive the exchange item from him. Please ensure that you have the original item available with you at the same address which has been selected for delivery of the exchange item.\n+ At any time, you can track the status of your exchange requests by going to the “My Orders” section."
						]
					},
					{
						"question":"How long would it take me to receive the refund for my return?",
						"link":"how-long-to-receive-return-refund",
						"answer":[
							"We take 3 business days from the date of receipt of the goods at Myntra to initiate a NEFT transfer or 7 to 10 business days if it is an online refund after the returned item has reached us. Therefore, the refund time really depends on the time it takes the courier company to deliver the packet to the returns processing facility. \nIn case it is beyond the above, please send us the details when the order was placed and we will expedite the refund. Myntra may at its sole discretion, in case of any discrepancies, ask you to share with us a screenshot of your bank statement."
						]
					},
					{
						"question":"How do I return multiple products from a single order?",
						"link":"return-multiple-product-from-single-order",
						"answer":[
							"If you are returning multiple products from a single order, you will receive a separate Return ID and email for each item. However, you can ship all the products delivered in a single order in a single shipment. Please include the Return IDs for all the products in a single sheet of paper."
						]
					},
					{
						"question":"Does Myntra pick up the product I want to return from my location?",
						"link":"product-return-location-serviceability",
						"answer":[
							"Currently, we pick up returns only from selected PIN Codes. If your delivery location is serviceable, you will be able to see and select the pickup option when you create a return request. \nWe will pick up the return within 72 hours of your placing the request. Please keep the return shipment ready."
						]
					},
					{
						"question":"I would like to Self-Ship the return myself to Myntra. How can I do this?",
						"link":"return-self-ship-explained",
						"answer":[
							"If your pin code is not covered by our pickup service, you will need to self-ship the return item by courier.If we do not offer a return pick up service in your area or you choose to ship the return to us, please send the return package along with the sheet of paper sheet (quoting the Order ID and the Return ID for each item included in the package), to the nearest returns processing facility. For all self-shipped returns, you will be reimbursed Rs. 100 towards your shipping costs. This is subject to your returns being inspected and successfully processed upon receipt at our end. The courier bill/receipt should satisfy the following conditions to be processed successfully: ",
							"+ It should capture the weight of the return package and the number of items present in it.\n+ You need to mention your place address, destination address, shipment date, amount and other details need to be mentioned legibly.\n+ The information on the receipt should NOT be edited/over-written.\n+ The courier charge (amount mentioned on the receipt) should not overshoot the Sender-Destination-Service combination and shall be cross checked with the courier company."
						]
					},
					{
						"question":"Where should I self-ship the Returns?",
						"link":"return-self-ship-addresses",
						"answer":[
							"You can send the return to any one of the following returns processing facilities depending on your location. Kindly do not send it to on any other address as the package would not be acceptable then.",
							"1. **South**\n2. **Myntra**\n3. **Vector E commerce Pvt Ltd**\n3. Survey Numbers 231, 232 and 233,\n4. Soukya Road, Samethanahalli Village,\n5. Anugondanahalli Hobli, Hoskote Taluk,\n6. Bangalore - 560067",
							"1. **North**\n2. **Myntra**\n3. **Vector E-Commerce Pvt Ltd.**\n4. Dev Niwas, K-2 block,\n5. Khasra no 819, Mahipalpur,\n6. Behind Apra Maruti Showroom.\n7. New Delhi - 110037",
							"1. **East**\n2. **Myntra**\n3. **Vector E-Commerce Pvt Ltd.**\n3. 184 Dr A.K.Paul Road.Behala,\n4. Near- Madhya Para Rickshaw Stand,\n5. Kolkata- 700034",
							"1. **West**\n2. **Myntra**\n3. **Vector E-Commerce Pvt Ltd.**\n3. Acropolis,\n4. Lower Ground floor. CTS NO 1386\n5. Church Road, Marol Andheri ( East )\n6. Mumbai 400 059"
						]
					}
				]
			},
			{
				"title":"Payments",
				"id":"paymentQueries",
				"displayOrder":4,
				"mymyntraLinks": {
					"title":"You can check refund status of your returns in MyMyntra",
					"links":[
						{
							"href":"/my/orders",
							"text":"Refund status"
						}
					]
				},
				"questions":[
					{
						"question":"How can I pay for my order at Myntra?",
						"answer":[
							"We support the following payment options at Myntra: ",
							"+ Cash On Delivery (available in select pin codes)\n+ Credit Card\n+ Debit Card\n+ Net banking\n+ Gift Card"
						]
					},
					{
						"question":"How does the COD (Cash on Delivery) payment option work?",
						"answer":[
							"Cash on Delivery allows you to pay for your order with cash at the time of delivery. Myntra offers Cash on Delivery option for all orders between Rs. 299 and Rs. 20000 for most delivery addresses. To place an order and pay for it using Cash on Delivery (COD), please select the 'Cash On Delivery' option on the payment page."
						]
					},
					{
						"question":"Why can't I see the COD option on my payment page?",
						"answer":[
							"If you do not see a COD option on your payment page, this may be due to one of the following reasons: ",
							"+ Your order value may be below Rs. 299 or over Rs. 20000.\n+ Our courier partners may not support the Cash on Delivery option for your delivery address.\n+ You may have placed another order using the COD option which is pending delivery. If the amount of this order when added to your current order exceeds Rs. 20000, then the COD option will be disabled temporarily."
						]
					},
					{
						"question":"What should I do if my payment fails?",
						"answer":[
							"Please retry making the payment after ensuring that the information entered is accurate, including all account details, billing addresses and passwords. If your payment still fails, you can use the Cash on Delivery (COD) payment option on the payment page to place your order. If your payment is debited from your account after a payment failure, it will be credited back within 7-10 business days, after we receive a confirmation from the bank."
						]
					},
					{
						"question":"I am being charged a VAT amount on my order. What is VAT?",
						"answer":[
							"Value Added Tax (VAT) is an indirect tax under the Indian taxation system which is levied, based on consumption, by state governments. VAT will have to borne/paid by the ultimate consumer of the product."
						]
					},
					{
						"question":"How is the VAT amount decided?",
						"answer":[
							"Following rules will govern whether or not an additional VAT will be applicable on the products purchased by you: ",
							"+ VAT applicability: For a product, if the total discount percentage is more than 19% of MRP, then VAT maybe collected from customer.\n+ VAT amount: If applicable, the amount of VAT collected from customer depends on category:\n  + Apparel/Clothing: Max 5% of net payable (MRP - product discount - coupon discount) will be collected from the customer. The balance VAT amount payable to government will be borne by Myntra.\n  + Footwear and Accessories: Max 12% of net payable (MRP - product discount - coupon discount) will be collected from the customer. The balance VAT amount payable to government will be borne by Myntra.\n  + Other Categories: Customer doesn't need to pay any VAT."
						]
					},
					{
						"question":"If I return/cancel the purchased product will the VAT amount charged be refunded?",
						"answer":[
							"Yes. If you return the product the applicable VAT amount will also be refunded to your Myntra cashback account."
						]
					}
				]
			},
			{
				"title":"Coupons and Cashback",
				"id":"couponsQueries",
				"displayOrder":5,
				"mymyntraLinks": {
					"title":"You can access your coupons and cashback in MyMyntra",
					"links":[
						{
							"href":"/my/coupons",
							"text":"View coupons"
						},
						{
							"href":"/my/cashback",
							"text":"View cashback"
						}
					]
				},
				"questions":[
					{
						"question":"How do I apply a coupon on the Myntra Mobile App?",
						"answer":[
							"You can apply a coupon on cart page before you place an order. The complete list of your unused and valid coupons is available under “Coupons” tab in the Myntra Mobile App."
						]
					},
					{
						"question":"How do I check unused coupon on the Myntra Website?",
						"answer":[
							"You can check a coupon on cart page. The complete list of your unused and valid coupons is available under the “Coupons” tab"
						]
					},
					{
						"question":"What is cashback? How do I redeem it?",
						"answer":[
							"Cashback is your store credit with Myntra that can be used to pay for purchases on Myntra. You get cashback when you return items to Myntra/cancel prepaid orders. You can redeem your cashback on the Payments page. You can check your cashback balance under “Cashback” in the Myntra Mobile App."
						]
					},
					{
						"question":"How do I withdraw money from my cashback account?",
						"answer":[
							"Cashback will be credited to the payment source – debit/ credit card from which the payment was made for pre-paid orders or via NEFT in case of COD orders. For cashback accrued from COD orders, please write an email to support@myntra.com from your registered email address along with your bank account details (Name of the bank, bank account number, bank customer name, IFSC code, account type - savings or current) and we will transfer your cashback to your bank account."
						]
					},
					{
						"question":"I don’t have access to my registered email address. How can I withdraw money from my cashback account?",
						"answer":[
							"Please call us at +91-80-43541999 and our customer care executives will help you. We will call back on your registered phone number with us to authenticate your identity before transferring your cashback to your bank account."
						]
					},
					{
						"question":"I was given a coupon when you cancelled my last order. How can I use it?",
						"answer":[
							"To use your coupon, you will have to continue shopping with us on the app. In case, you don’t have access to the app currently, don’t worry, your coupons are safe with us. Whenever you download the app in future, you will be able to use the coupon (unless it has expired)."
						]
					},
					{
						"question":"I have accumulated Myntra Points in my account. How can I redeem them?",
						"answer":[
							"To redeem Myntra Points, you will have to continue shopping with us on the app. In case, you don’t have access to the app, don’t worry, your Myntra Points are safe with us, whenever you download the App in future."
						]
					}
				]
			},
			{
				"title":"Gift Cards",
				"id":"giftQueries",
				"displayOrder":6,
				"questions":[
					{
						"question":"How do I purchase a Myntra Gift Card?",
						"answer":[
							"Unfortunately we have discontinued purchase of Myntra Gift Cards directly on our Myntra Mobile App. However, you may receive a Myntra Gift Card from third parties and you can shop with us using them."
						]
					},
					{
						"question":"I just received a Myntra Gift Card. How do I use it?",
						"answer":[
							"You can redeem the Gift Card on the “Payment” page. You need to simply enter the gift card number and the pin sent to you, on the “Payment” page, under the “Gift Card” tab while making the purchase."
						]
					},
					{
						"question":"What should I do if I have not received the mail that contained a Gift Card?",
						"answer":[
							"If you have not received the Gift Card, please contact the sender and ask him to resend the Gift Card. The sender can resend the copy of the email received while purchasing the Gift Card."
						]
					},
					{
						"question":"Do Myntra Gift Cards expire?",
						"answer":[
							"Yes. Unless redeemed, Myntra Gift Cards will expire."
						]
					},
					{
						"question":"How do I cancel a Gift Card?",
						"answer":[
							"You should contact the business provider or establishment who you purchased the Gift Card from, to cancel it."
						]
					},
					{
						"question":"How many Gift Cards can be used in one transaction?",
						"answer":[
							"If you have received a Gift Card, you are eligible to use only one Gift Card in one transaction."
						]
					}
				]
			},
			{
				"title":"Gift Wrapping",
				"id":"giftwrapQueries",
				"displayOrder":7,
				"questions":[
					{
						"question":"Can I use Myntra to send gifts to others?",
						"answer":[
							"Yes, you can use Myntra to send gifts to others. For an additional charge of Rs. 25, you can choose to gift wrap your order by selecting the option in your shopping bag. Your gift will also include a personalized message from you."
						]
					},
					{
						"question":"What payment methods can I use to pay for a gift order?",
						"answer":[
							"You can use any payment method that Myntra supports, except Cash on Delivery. You can also use your Cashback balance to pay for the order."
						]
					},
					{
						"question":"Will the pricing, discount and payment information be displayed on the package sent to the recipient?",
						"answer":[
							"No. The external packaging slip/invoice will not include any pricing, discount, or payment information. However, the original product tag with the MRP will be intact on the products inside the package."
						]
					},
					{
						"question":"Can I apply a coupon or discount on the gift wrapping charge?",
						"answer":[
							"No. Discounts and coupons are not applicable on the gift wrap charge."
						]
					},
					{
						"question":"Who can return the gift?",
						"answer":[
							"Both the sender and the recipient can put in a request to return the gift item. The sender can return an item by visiting the “My Orders” tab on the Myntra mobile app. The gift recipient can call our customer support to return a gift item. The refund amount will be credited to the sender's Cashback account. \n**Please note** that when you return an item, the gift wrap charges are not credited back."
						]
					}
				]
			}
		],
		"topQueries":[],
		"orderQueries":[],
		"cancelQueries":[],
		"returnQueries":[],
		"paymentQueries":[],
		"couponsQueries":[],
		"giftQueries":[],
		"giftwrapQueries":[]
	}
}